rpredictit
…
library(rpredictit)
rpredictit::runExample('demo')  

All Markets

Try rpredictit::all_markets() to return a tibble containing bid and ask data for all PredictIt markets:

rpredictit::all_markets()
#> Registered S3 method overwritten by 'xts':
#>   method     from
#>   as.zoo.xts zoo
#> Registered S3 method overwritten by 'quantmod':
#>   method            from
#>   as.zoo.data.frame zoo
#> # A tibble: 1,177 x 20
#>       id name  shortName image url   timeStamp           status contract_id
#>    <int> <chr> <chr>     <chr> <chr> <dttm>              <chr>        <int>
#>  1  2721 Whic Which pa http http 2020-01-22 23:27:54 Open          4389
#>  2  2721 Whic Which pa http http 2020-01-22 23:27:54 Open          4390
#>  3  2721 Whic Which pa http http 2020-01-22 23:27:54 Open          4388
#>  4  2721 Whic Which pa http http 2020-01-22 23:27:54 Open          4391
#>  5  2747 Will Will Cub http http 2020-01-22 23:27:54 Open          4495
#>  6  2875 Will Will Cuo http http 2020-01-22 23:27:54 Open          5121
#>  7  2901 Will Woman pr http http 2020-01-22 23:27:54 Open          5215
#>  8  2902 Will Will the http http 2020-01-22 23:27:54 Open          5216
#>  9  2903 Will Will the http http 2020-01-22 23:27:54 Open          5217
#> 10  2992 Will Will Zuc http http 2020-01-22 23:27:54 Open          5534
#> #  with 1,167 more rows, and 12 more variables: dateEnd <chr>,
#> #   contract_image <chr>, contract_name <chr>, contract_shortName <chr>,
#> #   contract_status <chr>, lastTradePrice <dbl>, bestBuyYesCost <dbl>,
#> #   bestBuyNoCost <dbl>, bestSellYesCost <dbl>, bestSellNoCost <dbl>,
#> #   lastClosePrice <dbl>, displayOrder <int>
…
